D_8023DF9C = 0x8023DF9C;
__stack_align = 0x80254470;
func_8025FE6C = 0x8025FE6C;
n_alAuxBusPull = 0x80260160;
func_8026A2E0 = 0x8026A2E0;
osPiRawStartDma = 0x8026B970;
osEPiRawStartDma = 0x8026BA50;
alEnvmixerParam = 0x8026FEC4;
alEnvmixerPull = 0x802702F0;
alLoadParam = 0x80270930;
alLoadPull = 0x80270FDC;
alResampleParam = 0x80271480;
func_8027156C = 0x8027156C;
alAuxBusParam = 0x80271780;
alAuxBusPull = 0x802717B0;
alMainBusParam = 0x80271890;
alMainBusPull = 0X802718C0;
alSaveParam = 0x802719E0;
alSavePull = 0x80271A14;
func_80272590 = 0x80272590;
D_8027BD28 = 0x8027BD28;
func_80291610 = 0x80291610;
func_80291AAC = 0x80291AAC;
func_802C71F0 = 0x802C71F0;
func_802C8A54 = 0x802C8A54;
func_802C8AA8 = 0x802C8AA8;
func_802C8AF8 = 0x802C8AF8;
func_802C8B4C = 0x802C8B4C;
func_802C8BA8 = 0x802C8BA8;
func_802C8C04 = 0x802C8C04;
func_802D7558 = 0x802D7558;
func_802D75B4 = 0x802D75B4;
func_802D7610 = 0x802D7610;
func_802DEB18 = 0x802DEB18;
func_802DF99C = 0x802DF99C;
func_802E4078 = 0x802E4078;
func_8030E484 = 0x8030E484;
func_8030E510 = 0x8030E510;
func_80311714 = 0x80311714;
func_80314AC8 = 0x80314AC8;
func_8031CC40 = 0x8031CC40;
func_8031F678 = 0x8031F678;
func_8031FB14 = 0x8031FB14;
func_803253A0 = 0x803253A0;
func_803255FC = 0x803255FC;
func_80325760 = 0x80325760;
func_80325794 = 0x80325794;
actor_new = 0x803272F8;
func_80329904 = 0x80329904;
func_80335110 = 0x80335110;
func_80345F24 = 0x80345F24;
func_80346414 = 0x80346414;
func_80347B54 = 0x80347B54;
func_80347B80 = 0x80347B80;
func_80347C5C = 0x80347C5C;
func_80347C70 = 0x80347C70;
func_80347CC8 = 0x80347CC8;
func_80347CF4 = 0x80347CF4;
func_80347DD0 = 0x80347DD0;
func_80347DE4 = 0x80347DE4;
func_8034BB08 = 0x8034BB08;
func_80352614 = 0x80352614;
func_803526DC = 0x803526DC;
func_80352F58 = 0x80352F58;
func_80352FF4 = 0x80352FF4;
func_80353A90 = 0x80353A90;
func_80353CC8 = 0x80353CC8;
func_80353FB4 = 0x80353FB4;
func_803540AC = 0x803540AC;
func_803541D8 = 0x803541D8;
func_803543F4 = 0x803543F4;
func_8035451C = 0x8035451C;
func_8035489C = 0x8035489C;
func_80354990 = 0x80354990;
func_80354C18 = 0x80354C18;
func_80354DC8 = 0x80354DC8;
func_80354EEC = 0x80354EEC;
func_80355004 = 0x80355004;
func_80355134 = 0x80355134;
func_80355294 = 0x80355294;
func_803553E8 = 0x803553E8;
func_80355548 = 0x80355548;
func_8035570C = 0x8035570C;
func_8035585C = 0x8035585C;
func_80355B00 = 0x80355B00;
func_80355C4C = 0x80355C4C;
func_80355D50 = 0x80355D50;
func_80355E80 = 0x80355E80;
func_803562E8 = 0x803562E8;
func_80356364 = 0x80356364;
func_8035644C = 0x8035644C;
func_8035646C = 0x8035646C;
func_8038FE30 = 0x8038FE30;
D_803649FC = 0x803649FC;
D_80364998 = 0x80364998;
D_80364CD0 = 0x80364CD0;
D_80375788 = 0x80375788;
D_803773D0 = 0x803773D0;
D_80389B60 = 0x80389B60;
D_80378534 = 0x80378534;
D_80389C00 = 0x80389C00;
D_80389B88 = 0x80389B88;
//D_80389C78 = 0x80389C78;
D_8036C4D0 = 0x8036C4D0;
D_80008720 = 0x80008720;
__osDispatchThread = 0x8026AA64;
D_80005180 = 0x80005180;
D_800051A0 = 0x800051A0;
piThreadStack   = 0x80283600;
chorangepadInfo     = 0x80389890;
chhutInfo           = 0x803898F0;

chchimpystump       = 0x80389920;
chcongaInfo         = 0x80389998;
chorangeInfo        = 0x803899D0;
chlmonkeyInfo       = 0x80389A38;
chgrublinInfo       = 0x80389AB8;
chjujuhitboxInfo    = 0x80389AE0;
chjujuInfo          = 0x80389B10;
D_80389B8C = 0x80389B8C;

D_8037C38E = 0x8037C38E;

D_80390854 = 0x80390854;
bgs_D_803907B8 = 0x803907B8;
bgs_D_80391190 = 0x80391190;
bgs_D_80391220 = 0x80391220;
bgs_D_80391228 = 0x80391228;

D_8038B1C0 = 0x8038B1C0;
D_8038B1D8 = 0x8038B1D8;

D_00005E70 = 0x00005E70;

D_80275684 = 0x80275684;
D_803907AE = 0x803907AE;
D_80389A5C = 0x80389A5C;

D_00001050 = 0x00001050;

func_8025F610 = 0x8025F610;
D_80276E84    = 0x80276E84;

D_80276E70 = 0x80276E70;
func_8025C29C = 0x8025C29C;
func_803298AC = 0x803298AC;
func_8032886C = 0x8032886C;
func_8034A754 = 0x8034A754;

func_802DA498 = 0x802DA498;

