<?xml version="1.0" encoding="UTF-8"?>
<svg xmlns="http://www.w3.org/2000/svg" width="91" height="20">
    <linearGradient id="b" x2="0" y2="100%">
        <stop offset="0" stop-color="#bbb" stop-opacity=".1"/>
        <stop offset="1" stop-opacity=".1"/>
    </linearGradient>
    <mask id="anybadge_1">
        <rect width="91" height="20" rx="3" fill="#fff"/>
    </mask>
    <g mask="url(#anybadge_1)">
        <path fill="#555" d="M0 0h24v20H0z"/>
        <path fill="#ff9400" d="M24 0h67v20H24z"/>
        <path fill="url(#b)" d="M0 0h91v20H0z"/>
    </g>
    <g fill="#fff" text-anchor="middle" font-family="DejaVu Sans,Verdana,Geneva,sans-serif" font-size="11">
        <text x="13.0" y="15" fill="#010101" fill-opacity=".3">CC</text>
        <text x="12.0" y="14">CC</text>
    </g>
    <g fill="#fff" text-anchor="middle" font-family="DejaVu Sans,Verdana,Geneva,sans-serif" font-size="11">
        <text x="58.5" y="15" fill="#010101" fill-opacity=".3">29.0000%</text>
        <text x="57.5" y="14">29.0000%</text>
    </g>
</svg>